{  
   "message":{  
      "message":"Cannot search for products: unexpected error while accessing the database.",
      "error-code":"E100",
      "error-details":"ERROR: relation \"mytoys.product\" does not exist\n  Posizione: 49"
   }
}